Urdu Language Sentiment Classifier
…
One sacred line with Neative, what is it?

df_urdu %>% filter(sentiment == "Neative")

## # A tibble: 1 x 3
##   phrase                                               sentiment bogus
##   <chr>                                                <chr>     <chr>
## 1 product achi hai but wrong waist size send kar diya. Neative   <NA>

A few lines have NA phrases, which need to be removed.

df_urdu %>%
  filter(is.na(phrase))

## # A tibble: 113 x 3
##    phrase sentiment bogus
##    <chr>  <chr>     <chr>
##  1 <NA>   Neutral   <NA> 
##  2 <NA>   Neutral   <NA> 
##  3 <NA>   Neutral   <NA> 
##  4 <NA>   Neutral   <NA> 
##  5 <NA>   Neutral   <NA> 
##  6 <NA>   Neutral   <NA> 
##  7 <NA>   Neutral   <NA> 
##  8 <NA>   Neutral   <NA> 
##  9 <NA>   Neutral   <NA> 
## 10 <NA>   Neutral   <NA> 
## # ... with 103 more rows
…
df_char_freq <- df_urdu %>% count_chars(phrase)
df_char_freq%>%glimpse

## Rows: 272
## Columns: 3
## $ chars <chr> " ", "a", "i", "e", "h", "n", "r", "k", "t", "o", "s", "m", "...
## $ n     <int> 251023, 193318, 89650, 82255, 79466, 63038, 57748, 52567, 470...
## $ prop  <chr> "0.183", "0.141", "0.065", "0.060", "0.058", "0.046", "0.042"...

Which are non-alpha. Note 0x001F602 doesnt exist.

df_char_freq %>% filter(!str_detect(chars,"[:alpha:]"))

## # A tibble: 183 x 3
##    chars             n prop 
##    <chr>         <int> <chr>
##  1 " "          251023 0.183
##  2 "."           10159 0.007
##  3 ","            2761 0.002
##  4 "1"            2466 0.002
##  5 "0"            1633 0.001
##  6 "?"            1599 0.001
##  7 "9"            1584 0.001
##  8 "\U0001f602"   1506 0.001
##  9 "2"            1357 0.001
## 10 ":"             959 0.001
## # ... with 173 more rows
…
Confirm chars are ok

df_urdu_clean %>% count_chars(phrase_clean)

## # A tibble: 62 x 3
##    chars      n prop 
##    <chr>  <int> <chr>
##  1 " "   241819 0.182
##  2 "a"   201695 0.152
##  3 "i"    92547 0.070
##  4 "e"    83985 0.063
##  5 "h"    83624 0.063
##  6 "n"    65396 0.049
##  7 "r"    59609 0.045
##  8 "k"    58021 0.044
##  9 "t"    49364 0.037
## 10 "s"    48592 0.037
## # ... with 52 more rows

3 Token-oriented study

df_urdu_tokens <- df_urdu_clean %>%
  mutate(token = str_split(phrase_clean,fixed(" "))) %>%
  select(token) %>%
  unnest(token) %>%
  count(token,sort=T) %>%
  mutate(id=row_number(),
         prop=n/sum(n),
         propSum=cumsum(prop))
df_urdu_tokens

## # A tibble: 32,734 x 5
##    token     n    id    prop propSum
##    <chr> <int> <int>   <dbl>   <dbl>
##  1 ki     5758     1 0.0220   0.0220
##  2 ke     5354     2 0.0204   0.0424
##  3 mein   4361     3 0.0166   0.0591
##  4 hai    3913     4 0.0149   0.0740
##  5 ka     3586     5 0.0137   0.0877
##  6 ko     3572     6 0.0136   0.101 
##  7 se     3237     7 0.0124   0.114 
##  8 aur    3173     8 0.0121   0.126 
##  9 k      2810     9 0.0107   0.137 
## 10 ne     2055    10 0.00785  0.144 
## # ... with 32,724 more rows
…
## `summarise()` regrouping output by 'sentiment' (override with `.groups` argument)

df_urdu_word_probs

## # A tibble: 673 x 5
##    name     Negative  Neutral Positive total
##    <chr>       <dbl>    <dbl>    <dbl> <dbl>
##  1 aaj      0.00209  0.00190  0.00182   955.
##  2 aala     0.000296 0.000630 0.00124   382.
##  3 aam      0.000961 0.00100  0.00106   503.
##  4 aane     0.000561 0.000608 0.000514  277.
##  5 aap      0.00349  0.00483  0.00433  2110.
##  6 aata     0.000435 0.000496 0.000744  285.
##  7 aaya     0.000978 0.000868 0.000948  462.
##  8 abdul    0.00104  0.000766 0.00129   520.
##  9 abdullah 0.000680 0.000933 0.000602  364.
## 10 abhi     0.00135  0.00179  0.00101   677.
## # ... with 663 more rows
…
